[
    {
        "code": "011",
        "country_code": "NG",
        "name": "FIRST BANK PLC",
        "branch": "011151003"
    },
    {
        "code": "014",
        "country_code": "NG",
        "name": "MAINSTREET BANK",
        "branch": "014150331"
    },
    {
        "code": "023",
        "country_code": "NG",
        "name": "NIGERIA INTERNATIONAL BANK LIMITED",
        "branch": "023150005"
    },
    {
        "code": "033",
        "country_code": "NG",
        "name": "UNITED BANK FOR AFRICA PLC",
        "branch": "033153513"
    },
    {
        "code": "035",
        "country_code": "NG",
        "name": "WEMA BANK PLC",
        "branch": "035150103"
    },
    {
        "code": "044",
        "country_code": "NG",
        "name": "ACCESS BANK PLC",
        "branch": "044150149"
    },
    {
        "code": "050",
        "country_code": "NG",
        "name": "ECOBANK NIGERIA PLC",
        "branch": "050150010"
    },
    {
        "code": "056",
        "country_code": "NG",
        "name": "OCEANIC BANK INTERNATIONAL PLC",
        "branch": "056080016"
    },
    {
        "code": "057",
        "country_code": "NG",
        "name": "ZENITH BANK PLC",
        "branch": "057150013"
    },
    {
        "code": "058",
        "country_code": "NG",
        "name": "GTBANK PLC",
        "branch": "058152036"
    },
    {
        "code": "063",
        "country_code": "NG",
        "name": "DIAMOND BANK PLC",
        "branch": "063150162"
    },
    {
        "code": "068",
        "country_code": "NG",
        "name": "STANDARD CHARTERED BANK NIGERIA LIMITED",
        "branch": "068150015"
    },
    {
        "code": "070",
        "country_code": "NG",
        "name": "FIDELITY BANK PLC",
        "branch": "070150003"
    },
    {
        "code": "076",
        "country_code": "NG",
        "name": "SKYE BANK PLC",
        "branch": "076151006"
    },
    {
        "code": "082",
        "country_code": "NG",
        "name": "KEYSTONE BANK",
        "branch": "082150017"
    },
    {
        "code": "084",
        "country_code": "NG",
        "name": "ENTERPRISE BANK",
        "branch": "084150015"
    },
    {
        "code": "214",
        "country_code": "NG",
        "name": "FIRST CITY MONUMENT BANK PLC",
        "branch": "214150018"
    },
    {
        "code": "215",
        "country_code": "NG",
        "name": "UNITY BANK PLC",
        "branch": "215154097"
    },
    {
        "code": "221",
        "country_code": "NG",
        "name": "STANBIC IBTC BANK PLC",
        "branch": "221159522"
    },
    {
        "code": "232",
        "country_code": "NG",
        "name": "STERLING BANK PLC",
        "branch": "232150016"
    }
]
