{
  "name": "Installations",
  "url": "installations",
  "code": "installations",
  "icon": "/static/images/icons/devices.png",
  "is_img": "true",
  "sub_links": [
    {
        "name": "Dashboard",
        "url": "#!/installations",
        "code": "customers",
        "icon": "fa-group"
    },
    {
      "name": "Meters",
      "url": "#!/installations/meters",
      "code": "installations",
      "icon": "fa-male"
    },
    {
      "name": "Add Installation",
      "url": "#!/installations/new",
      "code": "installations",
      "icon": "fa-book"
    }
  ]
}